<svg xmlns="http://www.w3.org/2000/svg" width="31" height="31" viewBox="0 0 31 31">
    <g>
        <g fill="#fff" stroke="#707070" transform="translate(-.125 -.323) translate(.125 .323)">
            <circle cx="15.5" cy="15.5" r="15.5" stroke="none"/>
            <circle cx="15.5" cy="15.5" r="15" fill="none"/>
        </g>
        <path fill="#343434" d="M108.977 747.149l-2.57-2.57 2.57-2.57a1.212 1.212 0 0 0-1.713-1.713l-2.57 2.57-2.569-2.57a1.212 1.212 0 0 0-1.713 1.713l2.569 2.57-2.569 2.57a1.212 1.212 0 0 0 1.713 1.714l2.569-2.57 2.57 2.57a1.212 1.212 0 0 0 1.713-1.714z" transform="translate(-.125 -.323) translate(-88.985 -728.87)"/>
    </g>
</svg>
