<svg xmlns="http://www.w3.org/2000/svg" width="32" height="32" viewBox="0 0 32 32">
    <path fill="#ffad0d" d="M16 0a16 16 0 1 0 16 16A16.018 16.018 0 0 0 16 0zm8.11 12.61l-8.667 8.667a1.332 1.332 0 0 1-1.885 0l-4.334-4.334a1.333 1.333 0 0 1 1.885-1.885l3.391 3.39 7.724-7.724a1.333 1.333 0 1 1 1.886 1.886zm0 0"/>
</svg>
