<svg xmlns="http://www.w3.org/2000/svg" width="691" height="368" viewBox="0 0 691 368">
    <defs>
        <filter id="Rectangle_11" width="691" height="368" x="0" y="0" filterUnits="userSpaceOnUse">
            <feOffset dy="2"/>
            <feGaussianBlur result="blur" stdDeviation="10"/>
            <feFlood flood-opacity=".102"/>
            <feComposite in2="blur" operator="in"/>
            <feComposite in="SourceGraphic"/>
        </filter>
        <style>
            .cls-3{fill:#2a5dd4}.cls-4{fill:rgba(44,91,147,.2)}.cls-5{fill:#2c5b93}.cls-6{fill:rgba(7,153,146,.2)}.cls-7{fill:#079992}.cls-8{fill:rgba(255,95,95,.2)}.cls-9{fill:#ff5f5f}.cls-10{fill:rgba(255,173,13,.2)}.cls-11{fill:#ffad0d}.cls-14{fill:#8a6cdd}
        </style>
    </defs>
    <g id="Illustration_4" transform="translate(-39 -1878)">
        <g filter="url(#Rectangle_11)" transform="translate(39 1878)">
            <rect id="Rectangle_11-2" width="631" height="308" fill="#fff" rx="8" transform="translate(30 28)"/>
        </g>
        <g id="Group_37" transform="translate(14 10)">
            <g id="Tiles">
                <g id="Group_18" transform="translate(-380 63)">
                    <rect id="Rectangle_13" width="91" height="72" fill="rgba(42,93,212,0.18)" rx="4" transform="translate(483 1943)"/>
                    <g id="open-book" transform="translate(511 1930.952)">
                        <g id="Group_29" transform="translate(0 35.048)">
                            <g id="Group_28">
                                <path id="Path_12" d="M36.076 35.049a1.228 1.228 0 0 0-.873.362 1.241 1.241 0 0 0-.367.885v18.69a1.251 1.251 0 0 0 1.248 1.246c2.9.007 7.762.612 11.115 4.121v-19.56a1.194 1.194 0 0 0-.171-.631c-2.755-4.433-8.044-5.106-10.952-5.113z" class="cls-3" transform="translate(-30.748 -35.049)"/>
                                <path id="Path_13" d="M169.114 54.985V36.294a1.241 1.241 0 0 0-.367-.885 1.229 1.229 0 0 0-.873-.362c-2.908.007-8.2.68-10.949 5.113a1.194 1.194 0 0 0-.171.631v19.56c3.353-3.509 8.214-4.114 11.115-4.121a1.251 1.251 0 0 0 1.245-1.245z" class="cls-3" transform="translate(-138.367 -35.048)"/>
                                <path id="Path_14" d="M184.957 71.8h-.9v15.628a3.189 3.189 0 0 1-3.178 3.181c-2.461.006-6.519.487-9.392 3.207a30.006 30.006 0 0 1 13.2.255 1.246 1.246 0 0 0 1.525-1.214v-19.81a1.248 1.248 0 0 0-1.255-1.247z" class="cls-3" transform="translate(-151.37 -67.491)"/>
                                <path id="Path_15" d="M2.15 87.428V71.8h-.9A1.248 1.248 0 0 0 0 73.047v19.809a1.246 1.246 0 0 0 1.525 1.214 30 30 0 0 1 13.2-.255c-2.874-2.72-6.931-3.2-9.392-3.207a3.189 3.189 0 0 1-3.183-3.18z" class="cls-3" transform="translate(0 -67.491)"/>
                            </g>
                        </g>
                    </g>
                </g>
                <g id="Group_36" transform="translate(-269 153)">
                    <rect id="Rectangle_13-2" width="91" height="72" class="cls-4" rx="4" transform="translate(483 1943)"/>
                    <g id="open-book-2" transform="translate(511 1930.952)">
                        <g id="Group_29-2" transform="translate(0 35.048)">
                            <g id="Group_28-2">
                                <path id="Path_12-2" d="M36.076 35.049a1.228 1.228 0 0 0-.873.362 1.241 1.241 0 0 0-.367.885v18.69a1.251 1.251 0 0 0 1.248 1.246c2.9.007 7.762.612 11.115 4.121v-19.56a1.194 1.194 0 0 0-.171-.631c-2.755-4.433-8.044-5.106-10.952-5.113z" class="cls-5" transform="translate(-30.748 -35.049)"/>
                                <path id="Path_13-2" d="M169.114 54.985V36.294a1.241 1.241 0 0 0-.367-.885 1.229 1.229 0 0 0-.873-.362c-2.908.007-8.2.68-10.949 5.113a1.194 1.194 0 0 0-.171.631v19.56c3.353-3.509 8.214-4.114 11.115-4.121a1.251 1.251 0 0 0 1.245-1.245z" class="cls-5" transform="translate(-138.367 -35.048)"/>
                                <path id="Path_14-2" d="M184.957 71.8h-.9v15.628a3.189 3.189 0 0 1-3.178 3.181c-2.461.006-6.519.487-9.392 3.207a30.006 30.006 0 0 1 13.2.255 1.246 1.246 0 0 0 1.525-1.214v-19.81a1.248 1.248 0 0 0-1.255-1.247z" class="cls-5" transform="translate(-151.37 -67.491)"/>
                                <path id="Path_15-2" d="M2.15 87.428V71.8h-.9A1.248 1.248 0 0 0 0 73.047v19.809a1.246 1.246 0 0 0 1.525 1.214 30 30 0 0 1 13.2-.255c-2.874-2.72-6.931-3.2-9.392-3.207a3.189 3.189 0 0 1-3.183-3.18z" class="cls-5" transform="translate(0 -67.491)"/>
                            </g>
                        </g>
                    </g>
                </g>
                <g id="Group_30" transform="translate(-47 63)">
                    <rect id="Rectangle_13-3" width="91" height="72" class="cls-6" rx="4" transform="translate(483 1943)"/>
                    <g id="open-book-3" transform="translate(511 1930.952)">
                        <g id="Group_29-3" transform="translate(0 35.048)">
                            <g id="Group_28-3">
                                <path id="Path_12-3" d="M36.076 35.049a1.228 1.228 0 0 0-.873.362 1.241 1.241 0 0 0-.367.885v18.69a1.251 1.251 0 0 0 1.248 1.246c2.9.007 7.762.612 11.115 4.121v-19.56a1.194 1.194 0 0 0-.171-.631c-2.755-4.433-8.044-5.106-10.952-5.113z" class="cls-7" transform="translate(-30.748 -35.049)"/>
                                <path id="Path_13-3" d="M169.114 54.985V36.294a1.241 1.241 0 0 0-.367-.885 1.229 1.229 0 0 0-.873-.362c-2.908.007-8.2.68-10.949 5.113a1.194 1.194 0 0 0-.171.631v19.56c3.353-3.509 8.214-4.114 11.115-4.121a1.251 1.251 0 0 0 1.245-1.245z" class="cls-7" transform="translate(-138.367 -35.048)"/>
                                <path id="Path_14-3" d="M184.957 71.8h-.9v15.628a3.189 3.189 0 0 1-3.178 3.181c-2.461.006-6.519.487-9.392 3.207a30.006 30.006 0 0 1 13.2.255 1.246 1.246 0 0 0 1.525-1.214v-19.81a1.248 1.248 0 0 0-1.255-1.247z" class="cls-7" transform="translate(-151.37 -67.491)"/>
                                <path id="Path_15-3" d="M2.15 87.428V71.8h-.9A1.248 1.248 0 0 0 0 73.047v19.809a1.246 1.246 0 0 0 1.525 1.214 30 30 0 0 1 13.2-.255c-2.874-2.72-6.931-3.2-9.392-3.207a3.189 3.189 0 0 1-3.183-3.18z" class="cls-7" transform="translate(0 -67.491)"/>
                            </g>
                        </g>
                    </g>
                </g>
                <g id="Group_35" transform="translate(-47 153)">
                    <rect id="Rectangle_13-4" width="91" height="72" class="cls-8" rx="4" transform="translate(483 1943)"/>
                    <g id="open-book-4" transform="translate(511 1930.952)">
                        <g id="Group_29-4" transform="translate(0 35.048)">
                            <g id="Group_28-4">
                                <path id="Path_12-4" d="M36.076 35.049a1.228 1.228 0 0 0-.873.362 1.241 1.241 0 0 0-.367.885v18.69a1.251 1.251 0 0 0 1.248 1.246c2.9.007 7.762.612 11.115 4.121v-19.56a1.194 1.194 0 0 0-.171-.631c-2.755-4.433-8.044-5.106-10.952-5.113z" class="cls-9" transform="translate(-30.748 -35.049)"/>
                                <path id="Path_13-4" d="M169.114 54.985V36.294a1.241 1.241 0 0 0-.367-.885 1.229 1.229 0 0 0-.873-.362c-2.908.007-8.2.68-10.949 5.113a1.194 1.194 0 0 0-.171.631v19.56c3.353-3.509 8.214-4.114 11.115-4.121a1.251 1.251 0 0 0 1.245-1.245z" class="cls-9" transform="translate(-138.367 -35.048)"/>
                                <path id="Path_14-4" d="M184.957 71.8h-.9v15.628a3.189 3.189 0 0 1-3.178 3.181c-2.461.006-6.519.487-9.392 3.207a30.006 30.006 0 0 1 13.2.255 1.246 1.246 0 0 0 1.525-1.214v-19.81a1.248 1.248 0 0 0-1.255-1.247z" class="cls-9" transform="translate(-151.37 -67.491)"/>
                                <path id="Path_15-4" d="M2.15 87.428V71.8h-.9A1.248 1.248 0 0 0 0 73.047v19.809a1.246 1.246 0 0 0 1.525 1.214 30 30 0 0 1 13.2-.255c-2.874-2.72-6.931-3.2-9.392-3.207a3.189 3.189 0 0 1-3.183-3.18z" class="cls-9" transform="translate(0 -67.491)"/>
                            </g>
                        </g>
                    </g>
                </g>
                <g id="Group_25" transform="translate(-158 63)">
                    <rect id="Rectangle_13-5" width="91" height="72" class="cls-8" rx="4" transform="translate(483 1943)"/>
                    <g id="chat" transform="translate(511.243 1930.345)">
                        <path id="Path_18" d="M247.324 199v-.014l-1.378-4.188v-10.252a3.053 3.053 0 0 0-3.05-3.05h-8.9v4.99a5.089 5.089 0 0 1-5.083 5.083h-.721v4.905a3.053 3.053 0 0 0 3.05 3.05h10.347l2.663 1.772a2.009 2.009 0 0 0 2.352-.051 2.01 2.01 0 0 0 .72-2.245zm-6.92-3.612a1.017 1.017 0 0 1-1.31-.592l-.443-1.173h-3.095l-.448 1.176a1.017 1.017 0 1 1-1.9-.724l2.8-7.351.009-.023a1.186 1.186 0 0 1 2.194 0l.011.028 2.778 7.353a1.017 1.017 0 0 1-.6 1.31z" class="cls-9" transform="translate(-212.718 -138.314)"/>
                        <path id="Path_19" d="M348.384 302.309h1.553l-.773-2.048z" class="cls-9" transform="translate(-324.771 -249.029)"/>
                        <path id="Path_20" d="M16.187 33.126H4.529a3.053 3.053 0 0 0-3.05 3.05V46.5L.1 50.689v.014a2.009 2.009 0 0 0 .729 2.241 2.009 2.009 0 0 0 2.351.051l2.66-1.773h10.347a3.053 3.053 0 0 0 3.05-3.05v-12a3.053 3.053 0 0 0-3.05-3.05zM14.6 46.691a1.017 1.017 0 0 1-1.438 0l-.445-.445a4.749 4.749 0 1 1 1.425-1.451l.458.458a1.017 1.017 0 0 1 0 1.438z" class="cls-9"/>
                        <path id="Path_21" d="M112.161 128.157a2.709 2.709 0 1 0 1.1 5.185l-.445-.445a1.017 1.017 0 1 1 1.438-1.438l.422.422a2.708 2.708 0 0 0-2.511-3.724z" class="cls-9" transform="translate(-102.033 -88.59)"/>
                    </g>
                </g>
                <g id="Group_34" transform="translate(64 153)">
                    <rect id="Rectangle_13-6" width="91" height="72" class="cls-10" rx="4" transform="translate(483 1943)"/>
                    <g id="chat-2" transform="translate(511.243 1930.345)">
                        <path id="Path_18-2" d="M247.324 199v-.014l-1.378-4.188v-10.252a3.053 3.053 0 0 0-3.05-3.05h-8.9v4.99a5.089 5.089 0 0 1-5.083 5.083h-.721v4.905a3.053 3.053 0 0 0 3.05 3.05h10.347l2.663 1.772a2.009 2.009 0 0 0 2.352-.051 2.01 2.01 0 0 0 .72-2.245zm-6.92-3.612a1.017 1.017 0 0 1-1.31-.592l-.443-1.173h-3.095l-.448 1.176a1.017 1.017 0 1 1-1.9-.724l2.8-7.351.009-.023a1.186 1.186 0 0 1 2.194 0l.011.028 2.778 7.353a1.017 1.017 0 0 1-.6 1.31z" class="cls-11" transform="translate(-212.718 -138.314)"/>
                        <path id="Path_19-2" d="M348.384 302.309h1.553l-.773-2.048z" class="cls-11" transform="translate(-324.771 -249.029)"/>
                        <path id="Path_20-2" d="M16.187 33.126H4.529a3.053 3.053 0 0 0-3.05 3.05V46.5L.1 50.689v.014a2.009 2.009 0 0 0 .729 2.241 2.009 2.009 0 0 0 2.351.051l2.66-1.773h10.347a3.053 3.053 0 0 0 3.05-3.05v-12a3.053 3.053 0 0 0-3.05-3.05zM14.6 46.691a1.017 1.017 0 0 1-1.438 0l-.445-.445a4.749 4.749 0 1 1 1.425-1.451l.458.458a1.017 1.017 0 0 1 0 1.438z" class="cls-11"/>
                        <path id="Path_21-2" d="M112.161 128.157a2.709 2.709 0 1 0 1.1 5.185l-.445-.445a1.017 1.017 0 1 1 1.438-1.438l.422.422a2.708 2.708 0 0 0-2.511-3.724z" class="cls-11" transform="translate(-102.033 -88.59)"/>
                    </g>
                </g>
                <g id="Group_20" transform="translate(-269 63)">
                    <rect id="Rectangle_13-7" width="91" height="72" class="cls-10" rx="4" transform="translate(483 1943)"/>
                    <g id="tick" transform="translate(514.031 1964.039)">
                        <path id="Path_16" d="M174.97 191a.9.9 0 0 1-1.239 0l-1.346-1.346-1.239 1.239 3.205 3.205 6.711-6.711-1.24-1.239z" class="cls-11" transform="translate(-161.138 -175.273)"/>
                        <path id="Path_17" d="M28.519 8.952a11.766 11.766 0 0 0-2.2-1.581 11.767 11.767 0 0 0-.619-2.639.877.877 0 0 0-.51-.51 11.767 11.767 0 0 0-2.639-.622 11.8 11.8 0 0 0-1.581-2.2.782.782 0 0 0-.668-.276 11.742 11.742 0 0 0-2.675.438 13.838 13.838 0 0 0-2.3-1.487.872.872 0 0 0-.722 0 13.83 13.83 0 0 0-2.3 1.487 11.743 11.743 0 0 0-2.675-.438.773.773 0 0 0-.668.276 11.8 11.8 0 0 0-1.583 2.2 11.767 11.767 0 0 0-2.639.619.877.877 0 0 0-.51.51 11.767 11.767 0 0 0-.619 2.639 11.8 11.8 0 0 0-2.2 1.581.878.878 0 0 0-.276.668 11.742 11.742 0 0 0 .438 2.675A13.832 13.832 0 0 0 .086 14.6a.879.879 0 0 0 0 .722 13.83 13.83 0 0 0 1.487 2.3 11.743 11.743 0 0 0-.439 2.678.878.878 0 0 0 .276.668 11.8 11.8 0 0 0 2.2 1.581 11.767 11.767 0 0 0 .619 2.639.876.876 0 0 0 .511.51 11.753 11.753 0 0 0 2.638.619 11.761 11.761 0 0 0 1.581 2.2.83.83 0 0 0 .668.276 11.732 11.732 0 0 0 2.673-.443 13.924 13.924 0 0 0 2.3 1.487.877.877 0 0 0 .722 0 13.9 13.9 0 0 0 2.3-1.487 11.743 11.743 0 0 0 2.675.438.822.822 0 0 0 .668-.276 11.767 11.767 0 0 0 1.581-2.2 11.753 11.753 0 0 0 2.638-.619.876.876 0 0 0 .511-.51 11.768 11.768 0 0 0 .619-2.639 11.761 11.761 0 0 0 2.2-1.581.873.873 0 0 0 .286-.663 11.742 11.742 0 0 0-.438-2.675 13.832 13.832 0 0 0 1.487-2.3.879.879 0 0 0 0-.722 13.83 13.83 0 0 0-1.487-2.3 11.743 11.743 0 0 0 .438-2.684.873.873 0 0 0-.281-.667zm-6.737 3.783l-7.95 7.95a.876.876 0 0 1-1.239 0L8.148 16.24a.876.876 0 0 1 0-1.239l2.479-2.479a.876.876 0 0 1 1.239 0l1.346 1.346 4.851-4.852a.876.876 0 0 1 1.239 0l2.48 2.484a.876.876 0 0 1 0 1.235z" class="cls-11"/>
                    </g>
                </g>
                <g id="Group_31" transform="translate(64 63)">
                    <rect id="Rectangle_13-8" width="91" height="72" class="cls-4" rx="4" transform="translate(483 1943)"/>
                    <g id="tick-2" transform="translate(514.031 1964.039)">
                        <path id="Path_16-2" d="M174.97 191a.9.9 0 0 1-1.239 0l-1.346-1.346-1.239 1.239 3.205 3.205 6.711-6.711-1.24-1.239z" class="cls-5" transform="translate(-161.138 -175.273)"/>
                        <path id="Path_17-2" d="M28.519 8.952a11.766 11.766 0 0 0-2.2-1.581 11.767 11.767 0 0 0-.619-2.639.877.877 0 0 0-.51-.51 11.767 11.767 0 0 0-2.639-.622 11.8 11.8 0 0 0-1.581-2.2.782.782 0 0 0-.668-.276 11.742 11.742 0 0 0-2.675.438 13.838 13.838 0 0 0-2.3-1.487.872.872 0 0 0-.722 0 13.83 13.83 0 0 0-2.3 1.487 11.743 11.743 0 0 0-2.675-.438.773.773 0 0 0-.668.276 11.8 11.8 0 0 0-1.583 2.2 11.767 11.767 0 0 0-2.639.619.877.877 0 0 0-.51.51 11.767 11.767 0 0 0-.619 2.639 11.8 11.8 0 0 0-2.2 1.581.878.878 0 0 0-.276.668 11.742 11.742 0 0 0 .438 2.675A13.832 13.832 0 0 0 .086 14.6a.879.879 0 0 0 0 .722 13.83 13.83 0 0 0 1.487 2.3 11.743 11.743 0 0 0-.439 2.678.878.878 0 0 0 .276.668 11.8 11.8 0 0 0 2.2 1.581 11.767 11.767 0 0 0 .619 2.639.876.876 0 0 0 .511.51 11.753 11.753 0 0 0 2.638.619 11.761 11.761 0 0 0 1.581 2.2.83.83 0 0 0 .668.276 11.732 11.732 0 0 0 2.673-.443 13.924 13.924 0 0 0 2.3 1.487.877.877 0 0 0 .722 0 13.9 13.9 0 0 0 2.3-1.487 11.743 11.743 0 0 0 2.675.438.822.822 0 0 0 .668-.276 11.767 11.767 0 0 0 1.581-2.2 11.753 11.753 0 0 0 2.638-.619.876.876 0 0 0 .511-.51 11.768 11.768 0 0 0 .619-2.639 11.761 11.761 0 0 0 2.2-1.581.873.873 0 0 0 .286-.663 11.742 11.742 0 0 0-.438-2.675 13.832 13.832 0 0 0 1.487-2.3.879.879 0 0 0 0-.722 13.83 13.83 0 0 0-1.487-2.3 11.743 11.743 0 0 0 .438-2.684.873.873 0 0 0-.281-.667zm-6.737 3.783l-7.95 7.95a.876.876 0 0 1-1.239 0L8.148 16.24a.876.876 0 0 1 0-1.239l2.479-2.479a.876.876 0 0 1 1.239 0l1.346 1.346 4.851-4.852a.876.876 0 0 1 1.239 0l2.48 2.484a.876.876 0 0 1 0 1.235z" class="cls-5"/>
                    </g>
                </g>
                <g id="Group_66" transform="translate(-380 153)">
                    <rect id="Rectangle_13-9" width="91" height="72" class="cls-6" rx="4" transform="translate(483 1943)"/>
                    <g id="tick-3" transform="translate(514.031 1964.039)">
                        <path id="Path_16-3" d="M174.97 191a.9.9 0 0 1-1.239 0l-1.346-1.346-1.239 1.239 3.205 3.205 6.711-6.711-1.24-1.239z" class="cls-7" transform="translate(-161.138 -175.273)"/>
                        <path id="Path_17-3" d="M28.519 8.952a11.766 11.766 0 0 0-2.2-1.581 11.767 11.767 0 0 0-.619-2.639.877.877 0 0 0-.51-.51 11.767 11.767 0 0 0-2.639-.622 11.8 11.8 0 0 0-1.581-2.2.782.782 0 0 0-.668-.276 11.742 11.742 0 0 0-2.675.438 13.838 13.838 0 0 0-2.3-1.487.872.872 0 0 0-.722 0 13.83 13.83 0 0 0-2.3 1.487 11.743 11.743 0 0 0-2.675-.438.773.773 0 0 0-.668.276 11.8 11.8 0 0 0-1.583 2.2 11.767 11.767 0 0 0-2.639.619.877.877 0 0 0-.51.51 11.767 11.767 0 0 0-.619 2.639 11.8 11.8 0 0 0-2.2 1.581.878.878 0 0 0-.276.668 11.742 11.742 0 0 0 .438 2.675A13.832 13.832 0 0 0 .086 14.6a.879.879 0 0 0 0 .722 13.83 13.83 0 0 0 1.487 2.3 11.743 11.743 0 0 0-.439 2.678.878.878 0 0 0 .276.668 11.8 11.8 0 0 0 2.2 1.581 11.767 11.767 0 0 0 .619 2.639.876.876 0 0 0 .511.51 11.753 11.753 0 0 0 2.638.619 11.761 11.761 0 0 0 1.581 2.2.83.83 0 0 0 .668.276 11.732 11.732 0 0 0 2.673-.443 13.924 13.924 0 0 0 2.3 1.487.877.877 0 0 0 .722 0 13.9 13.9 0 0 0 2.3-1.487 11.743 11.743 0 0 0 2.675.438.822.822 0 0 0 .668-.276 11.767 11.767 0 0 0 1.581-2.2 11.753 11.753 0 0 0 2.638-.619.876.876 0 0 0 .511-.51 11.768 11.768 0 0 0 .619-2.639 11.761 11.761 0 0 0 2.2-1.581.873.873 0 0 0 .286-.663 11.742 11.742 0 0 0-.438-2.675 13.832 13.832 0 0 0 1.487-2.3.879.879 0 0 0 0-.722 13.83 13.83 0 0 0-1.487-2.3 11.743 11.743 0 0 0 .438-2.684.873.873 0 0 0-.281-.667zm-6.737 3.783l-7.95 7.95a.876.876 0 0 1-1.239 0L8.148 16.24a.876.876 0 0 1 0-1.239l2.479-2.479a.876.876 0 0 1 1.239 0l1.346 1.346 4.851-4.852a.876.876 0 0 1 1.239 0l2.48 2.484a.876.876 0 0 1 0 1.235z" class="cls-7"/>
                    </g>
                </g>
            </g>
            <text id="UPLOADS" fill="#04004d" font-family="Cairo-Bold, Cairo" font-size="30px" font-weight="700" letter-spacing="-0.006em" transform="translate(103 1971)">
                <tspan x="0" y="0">UPLOADS</tspan>
            </text>
        </g>
        <g id="Group_67" transform="translate(-144 163)">
            <rect id="Rectangle_13-10" width="91" height="72" fill="rgba(138,108,221,0.2)" rx="4" transform="translate(483 1943)"/>
            <g id="tick-4" transform="translate(514.031 1964.039)">
                <path id="Path_16-4" d="M174.97 191a.9.9 0 0 1-1.239 0l-1.346-1.346-1.239 1.239 3.205 3.205 6.711-6.711-1.24-1.239z" class="cls-14" transform="translate(-161.138 -175.273)"/>
                <path id="Path_17-4" d="M28.519 8.952a11.766 11.766 0 0 0-2.2-1.581 11.767 11.767 0 0 0-.619-2.639.877.877 0 0 0-.51-.51 11.767 11.767 0 0 0-2.639-.622 11.8 11.8 0 0 0-1.581-2.2.782.782 0 0 0-.668-.276 11.742 11.742 0 0 0-2.675.438 13.838 13.838 0 0 0-2.3-1.487.872.872 0 0 0-.722 0 13.83 13.83 0 0 0-2.3 1.487 11.743 11.743 0 0 0-2.675-.438.773.773 0 0 0-.668.276 11.8 11.8 0 0 0-1.583 2.2 11.767 11.767 0 0 0-2.639.619.877.877 0 0 0-.51.51 11.767 11.767 0 0 0-.619 2.639 11.8 11.8 0 0 0-2.2 1.581.878.878 0 0 0-.276.668 11.742 11.742 0 0 0 .438 2.675A13.832 13.832 0 0 0 .086 14.6a.879.879 0 0 0 0 .722 13.83 13.83 0 0 0 1.487 2.3 11.743 11.743 0 0 0-.439 2.678.878.878 0 0 0 .276.668 11.8 11.8 0 0 0 2.2 1.581 11.767 11.767 0 0 0 .619 2.639.876.876 0 0 0 .511.51 11.753 11.753 0 0 0 2.638.619 11.761 11.761 0 0 0 1.581 2.2.83.83 0 0 0 .668.276 11.732 11.732 0 0 0 2.673-.443 13.924 13.924 0 0 0 2.3 1.487.877.877 0 0 0 .722 0 13.9 13.9 0 0 0 2.3-1.487 11.743 11.743 0 0 0 2.675.438.822.822 0 0 0 .668-.276 11.767 11.767 0 0 0 1.581-2.2 11.753 11.753 0 0 0 2.638-.619.876.876 0 0 0 .511-.51 11.768 11.768 0 0 0 .619-2.639 11.761 11.761 0 0 0 2.2-1.581.873.873 0 0 0 .286-.663 11.742 11.742 0 0 0-.438-2.675 13.832 13.832 0 0 0 1.487-2.3.879.879 0 0 0 0-.722 13.83 13.83 0 0 0-1.487-2.3 11.743 11.743 0 0 0 .438-2.684.873.873 0 0 0-.281-.667zm-6.737 3.783l-7.95 7.95a.876.876 0 0 1-1.239 0L8.148 16.24a.876.876 0 0 1 0-1.239l2.479-2.479a.876.876 0 0 1 1.239 0l1.346 1.346 4.851-4.852a.876.876 0 0 1 1.239 0l2.48 2.484a.876.876 0 0 1 0 1.235z" class="cls-14"/>
            </g>
        </g>
    </g>
</svg>
