<svg xmlns="http://www.w3.org/2000/svg" width="725" height="424" viewBox="0 0 725 424">
    <defs>
        <filter id="Rectangle_11" width="691" height="368" x="34" y="56" filterUnits="userSpaceOnUse">
            <feOffset dy="2"/>
            <feGaussianBlur result="blur" stdDeviation="10"/>
            <feFlood flood-opacity=".102"/>
            <feComposite in2="blur" operator="in"/>
            <feComposite in="SourceGraphic"/>
        </filter>
        <filter id="Ellipse_6" width="190" height="190" x="0" y="0" filterUnits="userSpaceOnUse">
            <feOffset dy="2"/>
            <feGaussianBlur result="blur-2" stdDeviation="10"/>
            <feFlood flood-opacity=".102"/>
            <feComposite in2="blur-2" operator="in"/>
            <feComposite in="SourceGraphic"/>
        </filter>
        <style>
            .cls-1{fill:#fff}.cls-3{fill:red}.cls-4{fill:#04004d}.cls-6{fill:#2a5dd4}.cls-8{fill:#079992}.cls-10{fill:#ffad0d}
        </style>
    </defs>
    <g id="Illustration_2" transform="translate(-5 -1822)">
        <g filter="url(#Rectangle_11)" transform="translate(5 1822)">
            <rect id="Rectangle_11-2" width="631" height="308" class="cls-1" rx="8" transform="translate(64 84)"/>
        </g>
        <rect id="Rectangle_31" width="448" height="225" fill="rgba(255,95,95,0.2)" rx="4" transform="translate(87 1923)"/>
        <path id="youtube" d="M51.834-.284a6.63 6.63 0 0 0-4.664-4.665c-4.142-1.133-20.708-1.133-20.708-1.133s-16.562 0-20.707 1.09A6.765 6.765 0 0 0 1.091-.284C0 3.857 0 12.446 0 12.446s0 8.632 1.09 12.729a6.631 6.631 0 0 0 4.665 4.665c4.185 1.133 20.707 1.133 20.707 1.133s16.566 0 20.707-1.09a6.631 6.631 0 0 0 4.665-4.664c1.09-4.141 1.09-12.729 1.09-12.729s.044-8.632-1.09-12.773zM21.188 20.38V4.512l13.776 7.934zm0 0" class="cls-3" transform="translate(284.999 2023.082)"/>
        <g id="Group_39" transform="translate(0 -1)">
            <path id="Rectangle_35" d="M0 0H240V6H0z" class="cls-4" transform="translate(139 2170)"/>
            <path id="Rectangle_36" d="M0 0H332V6H0z" class="cls-4" transform="translate(139 2186)"/>
        </g>
        <circle id="Ellipse_4" cx="18" cy="18" r="18" class="cls-4" transform="translate(87 2162)"/>
        <g id="Group_52">
            <rect id="Rectangle_32" width="126" height="85" fill="#d8e2f7" rx="4" transform="translate(559 1923)"/>
            <g id="study" transform="translate(608 1951)">
                <g id="Group_41" transform="translate(9.379)">
                    <g id="Group_40">
                        <path id="Path_27" d="M171.085 0a5.113 5.113 0 1 0 5.085 5.141A5.139 5.139 0 0 0 171.085 0z" class="cls-6" transform="translate(-166)"/>
                    </g>
                </g>
                <g id="Group_43" transform="translate(9.368 10.226)">
                    <g id="Group_42">
                        <path id="Path_28" d="M172.6 181h-3.39a7.6 7.6 0 0 0-3.4.835 21.265 21.265 0 0 1 5.1 2.111 21.267 21.267 0 0 1 5.1-2.111 7.6 7.6 0 0 0-3.41-.835z" class="cls-6" transform="translate(-165.81 -181)"/>
                    </g>
                </g>
                <g id="Group_45" transform="translate(25.537 15.311)">
                    <g id="Group_44">
                        <path id="Path_29" d="M453.695 271a1.7 1.7 0 0 0-1.695 1.695v3.39a1.695 1.695 0 1 0 3.39 0v-3.39a1.7 1.7 0 0 0-1.695-1.695z" class="cls-6" transform="translate(-452 -271)"/>
                    </g>
                </g>
                <g id="Group_47" transform="translate(0 15.311)">
                    <g id="Group_46">
                        <path id="Path_30" d="M1.695 271A1.7 1.7 0 0 0 0 272.695v3.39a1.695 1.695 0 1 0 3.39 0v-3.39A1.7 1.7 0 0 0 1.695 271z" class="cls-6" transform="translate(0 -271)"/>
                    </g>
                </g>
                <g id="Group_49" transform="translate(1.695 11.921)">
                    <g id="Group_48">
                        <path id="Path_31" d="M30.847 211a.847.847 0 0 0-.847.847v.847a3.393 3.393 0 0 1 3.39 3.39v3.39a3.393 3.393 0 0 1-3.39 3.39v.847a.847.847 0 0 0 .847.847 19.873 19.873 0 0 1 11.073 3.446v-14.26A21.376 21.376 0 0 0 30.847 211z" class="cls-6" transform="translate(-30 -211)"/>
                    </g>
                </g>
                <g id="Group_51" transform="translate(15.311 11.921)">
                    <g id="Group_50">
                        <path id="Path_32" d="M282.921 212.695v-.847a.847.847 0 0 0-.847-.847A21.376 21.376 0 0 0 271 213.745v14.26a19.873 19.873 0 0 1 11.073-3.446.847.847 0 0 0 .847-.847v-.847a3.393 3.393 0 0 1-3.39-3.39v-3.39a3.393 3.393 0 0 1 3.391-3.39z" class="cls-6" transform="translate(-271 -211)"/>
                    </g>
                </g>
            </g>
        </g>
        <g id="Group_54">
            <rect id="Rectangle_33" width="126" height="85" fill="rgba(7,153,146,0.2)" rx="4" transform="translate(559 2018)"/>
            <g id="study-2" transform="translate(608 2046)">
                <g id="Group_41-2" transform="translate(9.379)">
                    <g id="Group_40-2">
                        <path id="Path_27-2" d="M171.085 0a5.113 5.113 0 1 0 5.085 5.141A5.139 5.139 0 0 0 171.085 0z" class="cls-8" transform="translate(-166)"/>
                    </g>
                </g>
                <g id="Group_43-2" transform="translate(9.368 10.226)">
                    <g id="Group_42-2">
                        <path id="Path_28-2" d="M172.6 181h-3.39a7.6 7.6 0 0 0-3.4.835 21.265 21.265 0 0 1 5.1 2.111 21.267 21.267 0 0 1 5.1-2.111 7.6 7.6 0 0 0-3.41-.835z" class="cls-8" transform="translate(-165.81 -181)"/>
                    </g>
                </g>
                <g id="Group_45-2" transform="translate(25.537 15.311)">
                    <g id="Group_44-2">
                        <path id="Path_29-2" d="M453.695 271a1.7 1.7 0 0 0-1.695 1.695v3.39a1.695 1.695 0 1 0 3.39 0v-3.39a1.7 1.7 0 0 0-1.695-1.695z" class="cls-8" transform="translate(-452 -271)"/>
                    </g>
                </g>
                <g id="Group_47-2" transform="translate(0 15.311)">
                    <g id="Group_46-2">
                        <path id="Path_30-2" d="M1.695 271A1.7 1.7 0 0 0 0 272.695v3.39a1.695 1.695 0 1 0 3.39 0v-3.39A1.7 1.7 0 0 0 1.695 271z" class="cls-8" transform="translate(0 -271)"/>
                    </g>
                </g>
                <g id="Group_49-2" transform="translate(1.695 11.921)">
                    <g id="Group_48-2">
                        <path id="Path_31-2" d="M30.847 211a.847.847 0 0 0-.847.847v.847a3.393 3.393 0 0 1 3.39 3.39v3.39a3.393 3.393 0 0 1-3.39 3.39v.847a.847.847 0 0 0 .847.847 19.873 19.873 0 0 1 11.073 3.446v-14.26A21.376 21.376 0 0 0 30.847 211z" class="cls-8" transform="translate(-30 -211)"/>
                    </g>
                </g>
                <g id="Group_51-2" transform="translate(15.311 11.921)">
                    <g id="Group_50-2">
                        <path id="Path_32-2" d="M282.921 212.695v-.847a.847.847 0 0 0-.847-.847A21.376 21.376 0 0 0 271 213.745v14.26a19.873 19.873 0 0 1 11.073-3.446.847.847 0 0 0 .847-.847v-.847a3.393 3.393 0 0 1-3.39-3.39v-3.39a3.393 3.393 0 0 1 3.391-3.39z" class="cls-8" transform="translate(-271 -211)"/>
                    </g>
                </g>
            </g>
        </g>
        <g id="Group_53">
            <rect id="Rectangle_34" width="126" height="85" fill="rgba(255,173,13,0.2)" rx="4" transform="translate(559 2113)"/>
            <g id="study-3" transform="translate(608 2141)">
                <g id="Group_41-3" transform="translate(9.379)">
                    <g id="Group_40-3">
                        <path id="Path_27-3" d="M171.085 0a5.113 5.113 0 1 0 5.085 5.141A5.139 5.139 0 0 0 171.085 0z" class="cls-10" transform="translate(-166)"/>
                    </g>
                </g>
                <g id="Group_43-3" transform="translate(9.368 10.226)">
                    <g id="Group_42-3">
                        <path id="Path_28-3" d="M172.6 181h-3.39a7.6 7.6 0 0 0-3.4.835 21.265 21.265 0 0 1 5.1 2.111 21.267 21.267 0 0 1 5.1-2.111 7.6 7.6 0 0 0-3.41-.835z" class="cls-10" transform="translate(-165.81 -181)"/>
                    </g>
                </g>
                <g id="Group_45-3" transform="translate(25.537 15.311)">
                    <g id="Group_44-3">
                        <path id="Path_29-3" d="M453.695 271a1.7 1.7 0 0 0-1.695 1.695v3.39a1.695 1.695 0 1 0 3.39 0v-3.39a1.7 1.7 0 0 0-1.695-1.695z" class="cls-10" transform="translate(-452 -271)"/>
                    </g>
                </g>
                <g id="Group_47-3" transform="translate(0 15.311)">
                    <g id="Group_46-3">
                        <path id="Path_30-3" d="M1.695 271A1.7 1.7 0 0 0 0 272.695v3.39a1.695 1.695 0 1 0 3.39 0v-3.39A1.7 1.7 0 0 0 1.695 271z" class="cls-10" transform="translate(0 -271)"/>
                    </g>
                </g>
                <g id="Group_49-3" transform="translate(1.695 11.921)">
                    <g id="Group_48-3">
                        <path id="Path_31-3" d="M30.847 211a.847.847 0 0 0-.847.847v.847a3.393 3.393 0 0 1 3.39 3.39v3.39a3.393 3.393 0 0 1-3.39 3.39v.847a.847.847 0 0 0 .847.847 19.873 19.873 0 0 1 11.073 3.446v-14.26A21.376 21.376 0 0 0 30.847 211z" class="cls-10" transform="translate(-30 -211)"/>
                    </g>
                </g>
                <g id="Group_51-3" transform="translate(15.311 11.921)">
                    <g id="Group_50-3">
                        <path id="Path_32-3" d="M282.921 212.695v-.847a.847.847 0 0 0-.847-.847A21.376 21.376 0 0 0 271 213.745v14.26a19.873 19.873 0 0 1 11.073-3.446.847.847 0 0 0 .847-.847v-.847a3.393 3.393 0 0 1-3.39-3.39v-3.39a3.393 3.393 0 0 1 3.391-3.39z" class="cls-10" transform="translate(-271 -211)"/>
                    </g>
                </g>
            </g>
        </g>
        <g id="Group_65" transform="translate(-662 -1780)">
            <g filter="url(#Ellipse_6)" transform="translate(667 3602)">
                <circle id="Ellipse_6-2" cx="65" cy="65" r="65" class="cls-1" transform="translate(30 28)"/>
            </g>
            <g id="Group_64" transform="translate(729.482 3658.681)">
                <path id="Path_43" d="M59.589 43.317a6.751 6.751 0 0 0-5.778-5.252 179.565 179.565 0 0 0-20.012-.74 179.62 179.62 0 0 0-20.015.74 6.75 6.75 0 0 0-5.774 5.252 57.226 57.226 0 0 0-.943 12.634A57.215 57.215 0 0 0 8 68.585a6.75 6.75 0 0 0 5.776 5.252 179.576 179.576 0 0 0 20.013.741 179.449 179.449 0 0 0 20.011-.741 6.751 6.751 0 0 0 5.776-5.252 57.259 57.259 0 0 0 .936-12.633 57.3 57.3 0 0 0-.923-12.635zm-37.277 3.138h-3.868V67.01H14.85V46.455h-3.8v-3.367h11.262zm9.759 20.555h-3.232v-1.944c-1.284 1.472-2.5 2.19-3.691 2.19a1.981 1.981 0 0 1-2.081-1.325 9.1 9.1 0 0 1-.285-2.651V49.186h3.229v13.123a10.056 10.056 0 0 0 .029 1.256c.078.5.323.755.756.755.648 0 1.325-.5 2.042-1.512V49.186h3.232V67.01zm12.27-5.35a14.238 14.238 0 0 1-.327 3.592 2.557 2.557 0 0 1-2.58 2 4.4 4.4 0 0 1-3.334-1.968v1.727h-3.233V43.088H38.1V50.9a4.375 4.375 0 0 1 3.338-1.933 2.555 2.555 0 0 1 2.58 2.011 13.688 13.688 0 0 1 .327 3.583zm12.189-2.974h-6.459v3.16c0 1.65.54 2.474 1.65 2.474a1.388 1.388 0 0 0 1.443-1.3 20.322 20.322 0 0 0 .073-2.188h3.3v.471c0 1.041-.04 1.758-.069 2.081a4.6 4.6 0 0 1-.754 1.935 4.47 4.47 0 0 1-3.914 1.937 4.625 4.625 0 0 1-3.909-1.825 6.9 6.9 0 0 1-1.037-4.192V55a6.937 6.937 0 0 1 1-4.2 4.591 4.591 0 0 1 3.868-1.827 4.486 4.486 0 0 1 3.81 1.827 7.006 7.006 0 0 1 1 4.2v3.69z" class="cls-3" transform="translate(0 -11.263)"/>
                <path id="Path_44" d="M70.278 58.163q-1.619 0-1.621 2.472v1.649h3.229v-1.649c0-1.647-.54-2.472-1.608-2.472z" class="cls-3" transform="translate(-18.585 -17.551)"/>
                <path id="Path_45" d="M53.116 58.163a2.314 2.314 0 0 0-1.611.786v10.864a2.3 2.3 0 0 0 1.611.8c.931 0 1.4-.8 1.4-2.405v-7.613c.005-1.607-.469-2.432-1.4-2.432z" class="cls-3" transform="translate(-13.409 -17.551)"/>
                <path id="Path_46" d="M55.362 27.081c1.191 0 2.429-.723 3.729-2.212v1.965h3.264V8.82h-3.264v13.768c-.723 1.022-1.409 1.528-2.062 1.528-.437 0-.694-.258-.765-.765a7.57 7.57 0 0 1-.04-1.269V8.82H52.97v14.244a9.1 9.1 0 0 0 .289 2.678 2 2 0 0 0 2.103 1.339z" class="cls-3" transform="translate(-13.851 -2.661)"/>
                <path id="Path_47" d="M21.891 14.383v9.79h3.62v-9.79L29.865 0h-3.66l-2.47 9.493L21.166 0h-3.809c.763 2.241 1.557 4.493 2.32 6.735a59.546 59.546 0 0 1 2.214 7.648z" class="cls-3" transform="translate(-3.105)"/>
                <path id="Path_48" d="M40.135 26.987a4.45 4.45 0 0 0 3.808-1.844 7.046 7.046 0 0 0 1.013-4.236V14.6a7.06 7.06 0 0 0-1.013-4.243 4.84 4.84 0 0 0-7.608 0 7 7 0 0 0-1.022 4.243v6.308a6.983 6.983 0 0 0 1.022 4.236 4.449 4.449 0 0 0 3.8 1.843zm-1.558-13.042c0-1.667.506-2.5 1.558-2.5s1.556.83 1.556 2.5v7.577c0 1.667-.5 2.5-1.556 2.5s-1.558-.834-1.558-2.5z" class="cls-3" transform="translate(-8.523 -2.567)"/>
            </g>
        </g>
    </g>
</svg>
