<svg xmlns="http://www.w3.org/2000/svg" width="109" height="109" viewBox="0 0 109 109">
    <defs>
        <filter id="nv4b8a8f7a" width="109" height="109" x="0" y="0" filterUnits="userSpaceOnUse">
            <feOffset dy="3"/>
            <feGaussianBlur result="blur" stdDeviation="10"/>
            <feFlood flood-color="#2a5dd4" flood-opacity=".239"/>
            <feComposite in2="blur" operator="in"/>
            <feComposite in="SourceGraphic"/>
        </filter>
    </defs>
    <g>
        <g filter="url(#nv4b8a8f7a)" transform="translate(-661 -900) translate(661 900)">
            <circle cx="24.5" cy="24.5" r="24.5" fill="#2a5dd4" transform="translate(30 27)"/>
        </g>
        <path fill="#fff" d="M19.156 9.549a1.4 1.4 0 0 0-.779-2.4l-4.741-.689a.619.619 0 0 1-.467-.339l-2.12-4.3a1.4 1.4 0 0 0-2.518 0l-2.12 4.3a.62.62 0 0 1-.467.339L1.2 7.154a1.4 1.4 0 0 0-.779 2.4l3.43 3.344a.621.621 0 0 1 .179.549l-.809 4.722A1.375 1.375 0 0 0 3.53 19.3a1.419 1.419 0 0 0 1.731.342L9.5 17.414a.635.635 0 0 1 .577 0l4.24 2.229a1.39 1.39 0 0 0 .653.164 1.408 1.408 0 0 0 1.08-.507 1.374 1.374 0 0 0 .306-1.139l-.81-4.722a.62.62 0 0 1 .179-.549z" transform="translate(-661 -900) translate(705.92 940.708)"/>
    </g>
</svg>
